…
###### install_genderdata_package() \# only run the first time

``` r
examiner_gender <- app_data_sample %>% 
  distinct(examiner_name_first) %>% 
  do(results = gender(.$examiner_name_first, method = "ssa")) %>% 
  unnest(cols = c(results), keep_empty = TRUE) %>% 
  select(
    examiner_name_first = name,
    gender
  )
  examiner_gender
```

    ## # A tibble: 1,822 × 2
    ##    examiner_name_first gender
    ##    <chr>               <chr> 
    ##  1 AARON               male  
    ##  2 ABDEL               male  
    ##  3 ABDOU               male  
    ##  4 ABDUL               male  
    ##  5 ABDULHAKIM          male  
    ##  6 ABDULLAH            male  
    ##  7 ABDULLAHI           male  
    ##  8 ABIGAIL             female
    ##  9 ABIMBOLA            female
    ## 10 ABRAHAM             male  
    ## # … with 1,812 more rows
…
###### Let’s find the first and the last observed date for each examiner

We’ll first get examiner IDs and application dates in a separate
dataframe (table), for ease of manipulation. We’ll keep examiner ID (the
field `examiner_id`), and earliest and latest dates for each application
(`filing_date` and `appl_status_date` respectively).

``` r
examiner_dates <- app_data_sample %>% 
  select(examiner_id, filing_date, appl_status_date) 

examiner_dates
```

    ## # A tibble: 2,018,477 × 3
    ##    examiner_id filing_date appl_status_date  
    ##          <dbl> <date>      <chr>             
    ##  1       96082 2000-01-26  30jan2003 00:00:00
    ##  2       87678 2000-10-11  27sep2010 00:00:00
    ##  3       63213 2000-05-17  30mar2009 00:00:00
    ##  4       73788 2001-07-20  07sep2009 00:00:00
    ##  5       77294 2000-04-10  19apr2001 00:00:00
    ##  6       68606 2000-04-28  16jul2001 00:00:00
    ##  7       89557 2004-01-26  15may2017 00:00:00
    ##  8       97543 2000-06-23  03apr2002 00:00:00
    ##  9       98714 2000-02-04  27nov2002 00:00:00
    ## 10       65530 2002-02-20  23mar2009 00:00:00
    ## # … with 2,018,467 more rows
…
``` r
examiner_dates <- examiner_dates %>% 
  group_by(examiner_id) %>% 
  summarise(
    earliest_date = min(start_date, na.rm = TRUE), 
    latest_date = max(end_date, na.rm = TRUE),
    tenure = interval(earliest_date, latest_date) %/% days(1)
    )

examiner_dates
```

    ## # A tibble: 5,649 × 4
    ##    examiner_id earliest_date latest_date tenure
    ##          <dbl> <date>        <date>       <dbl>
    ##  1       59012 2004-07-28    2015-07-24    4013
    ##  2       59025 2009-10-26    2017-05-18    2761
    ##  3       59030 2005-12-12    2017-05-22    4179
    ##  4       59040 2007-09-11    2017-05-23    3542
    ##  5       59052 2001-08-21    2007-02-28    2017
    ##  6       59054 2000-11-10    2016-12-23    5887
    ##  7       59055 2004-11-02    2007-12-26    1149
    ##  8       59056 2000-03-24    2017-05-22    6268
    ##  9       59074 2000-01-31    2017-03-17    6255
    ## 10       59081 2011-04-21    2017-05-19    2220
    ## # … with 5,639 more rows
…
